<?xml version="1.0" encoding="UTF-8" standalone="no"?>
<svg
   xmlns="http://www.w3.org/2000/svg"
   width="24"
   height="24"
   style="fill:#ffffff"
   viewBox="0 0 24 24"
   id="svg2"
   version="1.1">
  <metadata
     id="metadata12">
  </metadata>
  <defs
     id="defs10" />
  <path
     d="M 6,2 6,4 18,4 18,2 6,2 Z M 4,6 4,8 20,8 20,6 4,6 Z m 0.203125,4.017578 c -1.2230446,0 -2.2246094,0.9 -2.2246094,2 l 0,8 c 0,1.1 1.0015648,2 2.2246094,2 l 15.566406,0 c 1.223044,0 2.222657,-0.9 2.222657,-2 l 0,-8 c 0,-1.1 -0.999613,-2 -2.222657,-2 l -15.566406,0 z m 0,2 15.566406,0 0,8 -15.566406,0 0,-8 z"
     id="path4" />
</svg>
