{
  "GEN": 1,
  "EXO": 2,
  "LEV": 3,
  "NUM": 4,
  "DEU": 5,
  "JOS": 6,
  "JDG": 7,
  "RUT": 8,
  "1SA": 9,
  "2SA": 10,
  "1KI": 11,
  "2KI": 12,
  "1CH": 13,
  "2CH": 14,
  "EZR": 15,
  "NEH": 16,
  "EST": 17,
  "JOB": 18,
  "PSA": 19,
  "PRO": 20,
  "ECC": 21,
  "SNG": 22,
  "ISA": 23,
  "JER": 24,
  "LAM": 25,
  "EZK": 26,
  "DAN": 27,
  "HOS": 28,
  "JOL": 29,
  "AMO": 30,
  "OBA": 31,
  "JON": 32,
  "MIC": 33,
  "NAM": 34,
  "HAB": 35,
  "ZEP": 36,
  "HAG": 37,
  "ZEC": 38,
  "MAL": 39,
  "JDT": 40,
  "WIS": 41,
  "TOB": 42,
  "SIR": 43,
  "BAR": 44,
  "1MA": 45,
  "2MA": 46,
  "ESG": 47,
  "DAG": 48,
  "MAN": 49,
  "MAT": 50,
  "MRK": 51,
  "LUK": 52,
  "JHN": 53,
  "ACT": 54,
  "ROM": 55,
  "1CO": 56,
  "2CO": 57,
  "GAL": 58,
  "EPH": 59,
  "PHP": 60,
  "COL": 61,
  "1TH": 62,
  "2TH": 63,
  "1TI": 64,
  "2TI": 65,
  "TIT": 66,
  "PHM": 67,
  "HEB": 68,
  "JAS": 69,
  "1PE": 70,
  "2PE": 71,
  "1JN": 72,
  "2JN": 73,
  "3JN": 74,
  "JUD": 75,
  "REV": 76
}