[
  {
    "relation": [
      "delegate_permission/common.handle_all_urls"
    ],
    "target": {
      "namespace": "android_app",
      "package_name": "me.remem.app",
      "sha256_cert_fingerprints": [
        "EC:9E:40:ED:8C:86:F5:39:49:BA:26:68:D5:1F:DC:98:FB:3D:71:72:60:F1:62:99:23:CB:AA:15:E2:6A:0F:47",
        "B0:EB:BB:C7:E1:05:B2:AF:DF:11:CD:42:DA:01:4C:F3:D5:9C:CD:78:45:54:A6:BD:10:34:BF:8B:34:71:58:75"
      ]
    }
  }
]